EntrezID
2
498
627
581
590
596
57091
274
267
23607
23621
341
351
348
945
23385
801
836
23237
9510
102
100170222
100616367
8633
4852
4846
4353
100126333
4524
4137
4129
10452
10347
3952
8301
574508
124152
7782
7422
7447
100500871
54209
3553
3643
3635
3630
3481
3482
3480
3479
3416
3077
3127
3162
10858
10857
768218
2932
7019
7018
7167
406892
7124
406938
43
6653
6648
6517
55676
2023
2099
2041
2147
407022
1718
1808
1565
1636
1392
1378
1471
1141
1139
1191
1200
51741
1965
26330
51338
51225
5328
5336
27328
5697
494324
5819
5468
5649
5664
5663
5621