EntrezID
472
580
207
999
672
675
841
4072
4835
4595
4683
4361
4436
4292
348654
10111
3845
8493
8438
7516
7517
3161
83990
2956
60561
84464
11200
7157
79728
79648
2099
100144748
1111
5245
5290
5395
5002
9821
5965
5889
5888
5892