EntrezID
403
23322
23247
23116
9731
9786
4867
57545
10464
153241
8481
54903
54806
374654
26123
79867
79848
65250
79600
65062
79583
80210
80184
51684
51524
200894
51259
317662
5147
27077
9851
91147
56623
95681