#EntrezID	Symbol
26123	TCTN3
80184	CEP290
51259	TMEM216
79583	TMEM231
79848	CSPP1
95681	CEP41
23247	KATNIP
27077	B9D1
56623	INPP5E
200894	ARL13B
5147	PDE6D
4867	NPHP1
9786	KIAA0586
80210	ARMC9
54806	AHI1
57545	CC2D2A
79600	TCTN1
317662	FAM149B1
23322	RPGRIP1L
153241	CEP120
91147	TMEM67
10464	PIBF1
8481	OFD1
65250	CPLANE1
403	ARL3
374654	KIF7
79867	TCTN2
51524	TMEM138
54903	MKS1
9851	KIAA0753
9731	CEP104
51684	SUFU
65062	TMEM237
23116	TOGARAM1
