#EntrezID	Symbol
59082	CARD18
6240	RRM1
467	ATF3
1645	AKR1C1
25878	MXRA5
6236	RRAD
101928376	IL12A-AS1
5925	RB1
10179	RBM7
2950	GSTP1
5894	RAF1
5021	OXTR
406913	MIR126
4893	NRAS
7262	PHLDA2
7422	VEGFA
3956	LGALS1
27436	EML4
29968	PSAT1
9817	KEAP1
2946	GSTM2
3918	LAMC2
324	APC
5604	MAP2K1
55743	CHFR
1728	NQO1
2729	GCLC
4826	NNAT
1294	COL7A1
9180	OSMR
3815	KIT
5605	MAP2K2
60487	TRMT11
23532	PRAME
100302142	MIR1246
387775	SLC22A10
332	BIRC5
26227	PHGDH
3845	KRAS
5243	ABCB1
1875	E2F5
4854	NOTCH3
3799	KIF5B
972	CD74
1871	E2F3
1870	E2F2
2026	ENO2
10568	SLC34A2
79733	E2F8
902	CCNH
159989	DEUP1
55829	SELENOS
11186	RASSF1
23603	CORO1C
2023	ENO1
1029	CDKN2A
6774	STAT3
1876	E2F6
65084	TMEM135
3791	KDR
5728	PTEN
693223	MIR638
7015	TERT
1113	CHGA
90355	MACIR
1012	CDH13
4609	MYC
1845	DUSP3
356	FASLG
79887	PLBD1
9510	ADAMTS1
4312	MMP1
841	CASP8
374	AREG
407021	MIR29A
6472	SHMT2
406988	MIR205
81037	CLPTM1L
8434	RECK
5829	PXN
5478	PPIA
928	CD9
7508	XPC
4318	MMP9
847	CAT
6794	STK11
3586	IL10
5223	PGAM1
55379	LRRC59
407031	MIR30C1
1869	E2F1
144455	E2F7
5744	PTHLH
7039	TGFA
3576	CXCL8
1474	CST6
2254	FGF9
3570	IL6R
6009	RHEB
931	MS4A1
2898	GRIK2
58499	ZNF462
3691	ITGB4
3280	HES1
7345	UCHL1
51614	ERGIC3
4193	MDM2
1956	EGFR
4780	NFE2L2
3091	HIF1A
4233	MET
2272	FHIT
7158	TP53BP1
6597	SMARCA4
4751	NEK2
1612	DAPK1
7157	TP53
4320	MMP11
207	AKT1
5052	PRDX1
558	AXL
3688	ITGB1
29108	PYCARD
23028	KDM1A
6657	SOX2
208	AKT2
2260	FGFR1
2696	GIPR
2263	FGFR2
1571	CYP2E1
406937	MIR145
54458	PRR13
6648	SOD2
1440	CSF3
673	BRAF
7080	NKX2-1
8202	NCOA3
2067	ERCC1
6385	SDC4
57099	AVEN
10087	CERT1
6855	SYP
5290	PIK3CA
1540	CYLD
4504	MT3
5979	RET
10397	NDRG1
8314	BAP1
768	CA9
2309	FOXO3
442911	MIR346
2475	MTOR
2305	FOXM1
238	ALK
2064	ERBB2
6098	ROS1
